# Apple ModelIO OBJ File: sansvisage01
mtllib sansvisage01.mtl
g 
v -3.87073 1.37232 -1.21838
v -3.94666 1.38756 -1.34886
v -3.94749 1.54779 -1.3239
v -3.87169 1.53264 -1.19492
v -4.0663 1.4 -1.45398
v -4.06692 1.56026 -1.42818
v -4.21798 1.40829 -1.52306
v -4.21833 1.56865 -1.49692
v -4.38685 1.4115 -1.54904
v -4.38692 1.57195 -1.52294
v -4.5564 1.40927 -1.52929
v -4.55621 1.56975 -1.50354
v -4.71002 1.40185 -1.46587
v -4.7096 1.56233 -1.44082
v -4.83267 1.39007 -1.36529
v -4.83205 1.55059 -1.34139
v -4.91231 1.37521 -1.23777
v -4.91156 1.53586 -1.21559
v -4.94114 1.35878 -1.09616
v -4.94032 1.51969 -1.07628
v -4.91633 1.34241 -0.954449
v -4.91551 1.50368 -0.937346
v -4.84032 1.32764 -0.826421
v -4.83956 1.4893 -0.81222
v -4.72056 1.31584 -0.724261
v -4.71995 1.47785 -0.712615
v -4.5688 1.30812 -0.657526
v -4.56838 1.47035 -0.64758
v -4.39988 1.30517 -0.632378
v -4.39973 1.46746 -0.622903
v -4.23035 1.30728 -0.65114
v -4.23049 1.46943 -0.640772
v -4.07681 1.31422 -0.712126
v -4.07724 1.47608 -0.699665
v -3.95428 1.32536 -0.809748
v -3.95496 1.4868 -0.794418
v -3.87473 1.33967 -0.934907
v -3.8756 1.50065 -0.91648
v -3.84595 1.35582 -1.07568
v -3.84692 1.5164 -1.05444
vn 0.927125 0.060389 -0.369855
vn 0.75429 0.104931 -0.648102
vn 0.759273 0.151083 -0.632991
vn 0.930148 0.089982 -0.35599
vn 0.528207 0.136623 -0.838052
vn 0.5336 0.192297 -0.823586
vn 0.278266 0.154704 -0.947964
vn 0.282419 0.214723 -0.934951
vn 0.018835 0.160193 -0.986906
vn 0.020584 0.220893 -0.975081
vn -0.242486 0.15372 -0.957899
vn -0.243437 0.212069 -0.946449
vn -0.498063 0.134957 -0.856574
vn -0.501091 0.187502 -0.844838
vn -0.733004 0.103276 -0.672338
vn -0.736758 0.145257 -0.660369
vn -0.916274 0.059932 -0.396042
vn -0.919056 0.084972 -0.384859
vn -0.999048 0.011654 -0.04204
vn -0.999367 0.013092 -0.033072
vn -0.943922 -0.02887 0.328905
vn -0.940822 -0.05356 0.334641
vn -0.76885 -0.05198 0.637313
vn -0.762919 -0.097913 0.639037
vn -0.531524 -0.059421 0.844957
vn -0.525378 -0.118169 0.842623
vn -0.276639 -0.05976 0.959114
vn -0.27319 -0.124591 0.953858
vn -0.019943 -0.060258 0.997984
vn -0.020863 -0.127186 0.991659
vn 0.239046 -0.0633 0.968943
vn 0.233838 -0.12925 0.963646
vn 0.500738 -0.065643 0.863106
vn 0.493131 -0.125848 0.860805
vn 0.748404 -0.058986 0.660615
vn 0.741517 -0.105324 0.662615
vn 0.934641 -0.034181 0.353947
vn 0.931029 -0.057047 0.360458
vn 0.999821 0.009488 -0.01635
vn 0.999875 0.014765 -0.005713
vt 0.167714 0.094931
vt 0.204338 0.094931
vt 0.204338 0.213297
vt 0.167714 0.213297
vt 0.242372 0.094931
vt 0.242372 0.213297
vt 0.281852 0.094931
vt 0.281852 0.213297
vt 0.322318 0.094931
vt 0.322318 0.213297
vt 0.363004 0.094931
vt 0.363004 0.213297
vt 0.403104 0.094931
vt 0.403104 0.213297
vt 0.442056 0.094931
vt 0.442056 0.213297
vt 0.479766 0.094931
vt 0.479766 0.213297
vt 0.51667 0.094931
vt 0.51667 0.213297
vt 0.553579 0.094931
vt 0.553579 0.213297
vt 0.591309 0.094931
vt 0.591309 0.213297
vt 0.630319 0.094931
vt 0.630319 0.213297
vt 0.670536 0.094931
vt 0.670536 0.213297
vt 0.711414 0.094931
vt 0.711414 0.213297
vt 0.752149 0.094931
vt 0.752149 0.213297
vt 0.791963 0.094931
vt 0.791963 0.213297
vt 0.830377 0.094931
vt 0.830377 0.213297
vt 0.867401 0.094931
vt 0.867401 0.213297
vt 0.903563 0.094931
vt 0.903563 0.213297
vt 0.131961 0.094931
vt 0.131961 0.213297
usemtl material_1
f 1/1/1 2/2/2 3/3/3 4/4/4 
f 2/2/2 5/5/5 6/6/6 3/3/3 
f 5/5/5 7/7/7 8/8/8 6/6/6 
f 7/7/7 9/9/9 10/10/10 8/8/8 
f 9/9/9 11/11/11 12/12/12 10/10/10 
f 11/11/11 13/13/13 14/14/14 12/12/12 
f 13/13/13 15/15/15 16/16/16 14/14/14 
f 15/15/15 17/17/17 18/18/18 16/16/16 
f 17/17/17 19/19/19 20/20/20 18/18/18 
f 19/19/19 21/21/21 22/22/22 20/20/20 
f 21/21/21 23/23/23 24/24/24 22/22/22 
f 23/23/23 25/25/25 26/26/26 24/24/24 
f 25/25/25 27/27/27 28/28/28 26/26/26 
f 27/27/27 29/29/29 30/30/30 28/28/28 
f 29/29/29 31/31/31 32/32/32 30/30/30 
f 31/31/31 33/33/33 34/34/34 32/32/32 
f 33/33/33 35/35/35 36/36/36 34/34/34 
f 35/35/35 37/37/37 38/38/38 36/36/36 
f 37/37/37 39/39/39 40/40/40 38/38/38 
f 39/41/39 1/1/1 4/4/4 40/42/40 
s off
g _1
v -4.31197 3.74278 0.020737
v -4.32925 3.7444 -0.00992
v -4.42921 3.7683 0.055363
v -4.35631 3.74569 -0.034344
v -4.39052 3.74654 -0.050142
v -4.42851 3.74685 -0.055769
v -4.46657 3.7466 -0.050674
v -4.50097 3.74581 -0.035355
v -4.52835 3.74456 -0.011312
v -4.54602 3.74296 0.019102
v -4.55226 3.74118 0.052909
v -4.54646 3.7394 0.0868
v -4.52918 3.73778 0.117457
v -4.50211 3.73648 0.14188
v -4.46791 3.73563 0.157678
v -4.42992 3.73532 0.163304
v -4.39186 3.73557 0.158208
v -4.35746 3.73637 0.142889
v -4.33008 3.73762 0.118847
v -4.3124 3.73921 0.088434
v -4.30616 3.74099 0.054628
v -4.94048 2.33648 -0.25649
v -4.96773 2.33016 -0.136011
v -4.90028 2.71195 -0.056466
v -4.87648 2.71775 -0.165234
v -4.86309 2.34083 -0.359992
v -4.80887 2.72266 -0.262076
v -4.74308 2.34332 -0.438658
v -4.70406 2.72632 -0.338058
v -4.59209 2.3444 -0.487563
v -4.57229 2.72848 -0.386302
v -4.42482 2.34457 -0.503934
v -4.42644 2.72905 -0.402404
v -4.25759 2.34414 -0.486789
v -4.28078 2.72808 -0.384831
v -4.10677 2.34302 -0.437
v -4.14954 2.72569 -0.33515
v -3.98722 2.34074 -0.357295
v -4.0456 2.72202 -0.257862
v -3.91076 2.33669 -0.252688
v -3.97915 2.71724 -0.159954
v -3.88498 2.33068 -0.131242
v -3.95674 2.71164 -0.050458
v -3.91243 2.32313 -0.004162
v -3.98057 2.70571 0.0601
v -3.99037 2.31508 0.115097
v -4.04829 2.70009 0.160582
v -4.11108 2.30788 0.212467
v -4.15325 2.69548 0.240487
v -4.26266 2.30282 0.275594
v -4.28515 2.69244 0.291338
v -4.43019 2.30081 0.296409
v -4.43107 2.69132 0.307856
v -4.59726 2.30227 0.272645
v -4.57672 2.69231 0.288552
v -4.74753 2.30701 0.207642
v -4.70786 2.69533 0.235633
v -4.86636 2.31416 0.109583
v -4.81165 2.70004 0.154608
v -4.94221 2.32235 -0.009562
v -4.87795 2.70582 0.05381
v -4.8087 2.88326 0.061689
v -4.82756 2.88861 -0.036714
v -4.8074 2.89384 -0.134545
v -4.7502 2.89846 -0.222309
v -4.66156 2.90201 -0.291566
v -4.55014 2.90418 -0.335684
v -4.42686 2.90478 -0.350414
v -4.30377 2.90383 -0.334288
v -4.19291 2.90143 -0.288803
v -4.10513 2.89779 -0.218298
v -4.04905 2.89323 -0.129534
v -4.03016 2.88813 -0.031078
v -4.05031 2.88296 0.067459
v -4.10753 2.87824 0.156325
v -4.19621 2.87445 0.22662
v -4.30384 2.8706 0.302219
v -4.43115 2.86973 0.316845
v -4.55824 2.87058 0.299986
v -4.66493 2.87447 0.222478
v -4.75266 2.87838 0.151022
v -4.76682 3.12652 0.117625
v -4.78349 3.132 0.013969
v -4.76548 3.13748 -0.0895
v -4.71454 3.1424 -0.182674
v -4.63568 3.14627 -0.256437
v -4.53661 3.14869 -0.303541
v -4.42702 3.14944 -0.319327
v -4.31765 3.14845 -0.302207
v -4.21919 3.14583 -0.253838
v -4.14128 3.14186 -0.178963
v -4.09156 3.13692 -0.08495
v -4.07487 3.13151 0.018943
v -4.09287 3.12614 0.122497
v -4.14379 3.12132 0.21556
v -4.20391 3.11755 0.289445
v -4.3012 3.0051 0.334881
v -4.23292 3.11659 0.308028
v -4.3119 3.11481 0.342289
v -4.4313 2.93691 0.3457
v -4.43135 3.11399 0.357858
v -4.56358 2.97223 0.330487
v -4.55059 3.1149 0.340522
v -4.65474 3.11746 0.291554
v -4.62042 3.0271 0.306558
v -4.65471 3.11774 0.285655
v -4.7171 3.12159 0.211338
v -4.68105 3.63614 0.037987
v -4.66931 3.63128 0.13027
v -4.6115 3.69647 0.137294
v -4.62037 3.70042 0.062052
v -4.66813 3.641 -0.054219
v -4.61053 3.70438 -0.013135
v -4.6318 3.64539 -0.137311
v -4.58295 3.70795 -0.080895
v -4.57565 3.64887 -0.203127
v -4.54033 3.71078 -0.134569
v -4.50515 3.65109 -0.245181
v -4.48683 3.71258 -0.168871
v -4.42722 3.65181 -0.259309
v -4.42771 3.71317 -0.180413
v -4.34948 3.65097 -0.244104
v -4.36874 3.71249 -0.168049
v -4.27954 3.64864 -0.201072
v -4.3157 3.7106 -0.133004
v -4.22425 3.64507 -0.134473
v -4.27378 3.70771 -0.078737
v -4.18901 3.64062 -0.050877
v -4.24708 3.70409 -0.010597
v -4.17728 3.63574 0.041502
v -4.23822 3.70012 0.064719
v -4.19021 3.6309 0.133606
v -4.24805 3.69618 0.139824
v -4.22651 3.62659 0.216422
v -4.27562 3.69267 0.207367
v -4.28289 3.62127 0.319973
v -4.31824 3.68991 0.260764
v -4.34936 3.60254 0.366077
v -4.37172 3.68817 0.294833
v -4.43117 3.62413 0.354598
v -4.43084 3.6876 0.306286
v -4.509 3.61962 0.353664
v -4.48981 3.68826 0.294019
v -4.579 3.6215 0.317941
v -4.54286 3.69009 0.259211
v -4.63407 3.62691 0.213596
v -4.58479 3.69291 0.205222
v -4.76577 3.35319 0.028281
v -4.7486 3.35884 -0.079242
v -4.70017 3.36395 -0.176094
v -4.62521 3.36798 -0.252765
v -4.53107 3.37055 -0.30171
v -4.42695 3.37138 -0.318092
v -4.32306 3.37039 -0.300286
v -4.22957 3.36768 -0.250049
v -4.15561 3.36353 -0.172344
v -4.10844 3.35835 -0.074828
v -4.09266 3.35267 0.032915
v -4.10982 3.34704 0.140313
v -4.15825 3.34202 0.236854
v -4.21101 3.19629 0.300507
v -4.19971 3.33953 0.28503
v -4.23322 3.33779 0.319064
v -4.32736 3.33532 0.367651
v -4.43146 3.33452 0.383903
v -4.53536 3.33547 0.366256
v -4.62887 3.33808 0.316396
v -4.68567 3.34118 0.257106
v -4.68472 3.20236 0.265206
v -4.70282 3.34234 0.234802
v -4.74999 3.34753 0.135928
v -4.73739 3.51895 0.038496
v -4.72298 3.51348 0.142479
v -4.72164 3.52442 -0.065376
v -4.67726 3.52935 -0.158949
v -4.60859 3.53325 -0.233039
v -4.52237 3.53574 -0.280351
v -4.42703 3.53655 -0.296208
v -4.33191 3.53559 -0.279034
v -4.24631 3.53297 -0.230527
v -4.17862 3.52896 -0.155481
v -4.13546 3.52395 -0.061291
v -4.12105 3.51846 0.042787
v -4.1368 3.51302 0.146545
v -4.18117 3.50816 0.239826
v -4.25811 3.50403 0.319904
v -4.2391 3.5051 0.298949
v -4.25713 3.52976 0.320944
v -4.34017 3.50169 0.365918
v -4.3494 3.60224 0.372021
v -4.43091 3.50093 0.381337
v -4.4312 3.62383 0.36055
v -4.52146 3.50182 0.364684
v -4.50904 3.61932 0.359616
v -4.60294 3.50429 0.317544
v -4.59181 3.5761 0.321291
v -4.6439 3.52795 0.274198
v -4.65371 3.50672 0.271227
v -4.6798 3.50855 0.236386
v -4.69444 3.39948 0.252352
v -4.6944 3.39978 0.246377
v -4.59177 3.5764 0.315327
v -4.65367 3.50703 0.265249
v -4.64386 3.52826 0.26822
v -4.70285 3.34204 0.240773
v -4.56355 2.97249 0.324679
v -4.62039 3.02737 0.300703
v -4.43127 2.93717 0.339929
v -4.30117 3.00537 0.32907
v -4.23289 3.11687 0.302149
v -4.21098 3.19658 0.294598
v -4.19968 3.33983 0.279076
v -4.23907 3.5054 0.292981
v -4.25709 3.53007 0.314983
v -4.68469 3.20266 0.259271
v -4.86328 2.07875 -0.01311
v -4.74445 2.06895 0.092217
v -4.93903 2.08941 -0.139126
v -4.9644 2.0991 -0.270593
v -4.93693 2.10656 -0.393381
v -4.85929 2.11126 -0.496129
v -4.73899 2.11347 -0.571617
v -4.58764 2.11413 -0.617028
v -4.41994 2.11424 -0.632267
v -4.25222 2.11425 -0.61739
v -4.10096 2.11378 -0.571619
v -3.98108 2.1118 -0.494933
v -3.90449 2.10736 -0.390647
v -3.87879 2.10021 -0.266618
v -3.90652 2.09083 -0.134581
v -3.98494 2.08038 -0.008724
v -4.10627 2.07049 0.095788
v -4.2585 2.0631 0.164813
v -4.42659 2.06002 0.188251
v -4.59402 2.06214 0.162734
vn 0.20682 0.97816 -0.020716
vn 0.177245 0.980269 -0.087499
vn 0.000427 0.99854 0.054013
vn 0.130187 0.981342 -0.141488
vn 0.069806 0.981757 -0.176864
vn 0.002095 0.981885 -0.189464
vn -0.065785 0.981877 -0.177738
vn -0.126654 0.981564 -0.143146
vn -0.174464 0.980562 -0.089777
vn -0.204977 0.978487 -0.023381
vn -0.215861 0.975162 0.04963
vn -0.206344 0.970739 0.12283
vn -0.176987 0.965745 0.189768
vn -0.129943 0.961041 0.243957
vn -0.069347 0.957635 0.27951
vn -0.001266 0.956363 0.292177
vn 0.06698 0.957551 0.280373
vn 0.128054 0.960876 0.245599
vn 0.17584 0.965509 0.192024
vn 0.206127 0.970446 0.125486
vn 0.216672 0.974836 0.052426
vn -0.900077 0.214307 -0.379385
vn -0.9969 0.077512 0.013515
vn -0.974211 0.222577 0.037053
vn -0.890763 0.279386 -0.358447
vn -0.669528 0.311432 -0.674345
vn -0.685538 0.297358 -0.664542
vn -0.418577 0.350833 -0.837681
vn -0.445723 0.287235 -0.847836
vn -0.197089 0.359479 -0.912103
vn -0.215178 0.271813 -0.937985
vn 0.002046 0.361821 -0.932245
vn 0.003951 0.266024 -0.963958
vn 0.201085 0.365971 -0.908642
vn 0.22299 0.27455 -0.93536
vn 0.422068 0.363098 -0.830673
vn 0.453034 0.292523 -0.842134
vn 0.67171 0.328429 -0.664034
vn 0.691321 0.304501 -0.655251
vn 0.900515 0.233827 -0.366602
vn 0.893299 0.286914 -0.345972
vn 0.995112 0.094743 0.027853
vn 0.972183 0.228744 0.050366
vn 0.918048 -0.030163 0.39532
vn 0.893588 0.152863 0.422059
vn 0.735801 -0.114772 0.667401
vn 0.711819 0.088214 0.696801
vn 0.50583 -0.161992 0.847287
vn 0.495054 0.037182 0.868066
vn 0.253244 -0.183355 0.949868
vn 0.259601 -0.010331 0.965661
vn -0.008445 -0.189407 0.981862
vn -0.009434 -0.036749 0.99928
vn -0.268113 -0.18467 0.945522
vn -0.276305 -0.010914 0.961008
vn -0.516934 -0.165679 0.839839
vn -0.50739 0.035909 0.860968
vn -0.743934 -0.122208 0.656983
vn -0.720669 0.085882 0.687939
vn -0.923242 -0.042365 0.381877
vn -0.899561 0.148813 0.410665
vn -0.916539 0.201138 0.345688
vn -0.961571 0.274429 -0.008322
vn -0.884852 0.301004 -0.355574
vn -0.714021 0.286019 -0.639036
vn -0.490559 0.250847 -0.834522
vn -0.245494 0.219024 -0.944331
vn 0.005732 0.2068 -0.978367
vn 0.256855 0.219732 -0.941139
vn 0.501143 0.252144 -0.827816
vn 0.72231 0.287614 -0.628925
vn 0.889187 0.302487 -0.343289
vn 0.961264 0.2756 0.004079
vn 0.912056 0.202254 0.356717
vn 0.759048 0.101231 0.643117
vn 0.593197 0.003741 0.805049
vn 0.343423 -0.082761 0.935527
vn -0.000996 -0.123075 0.992397
vn -0.327263 -0.08847 0.940783
vn -0.605644 0.009597 0.795678
vn -0.765728 0.099958 0.63535
vn -0.936177 0.051805 0.34769
vn -0.992271 0.12282 0.01771
vn -0.935887 0.154193 -0.316765
vn -0.779933 0.146299 -0.608523
vn -0.551729 0.116807 -0.825803
vn -0.281558 0.088373 -0.955466
vn 0.006198 0.077205 -0.996996
vn 0.293686 0.088701 -0.951778
vn 0.56266 0.117204 -0.818338
vn 0.788144 0.146452 -0.597813
vn 0.940046 0.154051 -0.304272
vn 0.991977 0.12273 0.030318
vn 0.931511 0.052515 0.359901
vn 0.799038 -0.03592 0.600207
vn 0.65634 -0.108357 0.746643
vn 0.172549 -0.05621 0.983396
vn 0.398286 -0.023003 0.916973
vn 0.244569 -0.076259 0.966629
vn -0.019707 -0.063573 0.997783
vn -0.010489 -0.090762 0.995817
vn -0.137013 -0.063078 0.988559
vn -0.145669 -0.085735 0.985611
vn -0.418002 -0.018897 0.90825
vn -0.418002 -0.018897 0.908249
vn -0.695074 -0.11474 0.709723
vn -0.809669 -0.040261 0.585504
vn -0.853664 0.520658 0.013158
vn -0.833508 0.494251 0.246943
vn -0.637098 0.736347 0.227816
vn -0.664965 0.745203 0.049951
vn -0.818513 0.531433 -0.218208
vn -0.621163 0.774044 -0.122524
vn -0.72242 0.528644 -0.445696
vn -0.516848 0.812891 -0.268471
vn -0.551428 0.517212 -0.654537
vn -0.370029 0.847889 -0.379688
vn -0.300137 0.504795 -0.809383
vn -0.19249 0.871102 -0.451807
vn 0.00643 0.499353 -0.866375
vn 0.00402 0.879057 -0.4767
vn 0.312098 0.504403 -0.805092
vn 0.20011 0.87078 -0.449108
vn 0.561042 0.516504 -0.646882
vn 0.376491 0.847293 -0.374632
vn 0.728981 0.52775 -0.435968
vn 0.521591 0.812107 -0.261581
vn 0.8219 0.530494 -0.207501
vn 0.623763 0.773191 -0.114436
vn 0.853957 0.519786 0.024102
vn 0.665162 0.744408 0.058458
vn 0.830729 0.493508 0.257563
vn 0.634921 0.735687 0.235883
vn 0.762814 0.47848 0.434938
vn 0.548106 0.754097 0.361824
vn 0.615063 0.460908 0.639736
vn 0.393533 0.796221 0.459525
vn 0.254716 0.627507 0.735768
vn 0.167769 0.813826 0.556364
vn 0.011479 0.63703 0.770754
vn 0.003083 0.816561 0.57725
vn -0.240639 0.663705 0.708229
vn -0.171444 0.826901 0.535576
vn -0.608077 0.516237 0.60311
vn -0.402607 0.800677 0.443648
vn -0.771482 0.486893 0.409573
vn -0.551916 0.75462 0.354876
vn -0.993484 0.113945 0.002488
vn -0.945413 0.122024 -0.302168
vn -0.806848 0.110201 -0.58039
vn -0.58752 0.087917 -0.80442
vn -0.30688 0.067684 -0.949338
vn 0.00667 0.059718 -0.998193
vn 0.319648 0.067827 -0.945106
vn 0.598454 0.088001 -0.796309
vn 0.81468 0.109981 -0.569386
vn 0.949372 0.121491 -0.289711
vn 0.993436 0.113384 0.015118
vn 0.944295 0.083378 0.318364
vn 0.830373 0.055547 0.554433
vn 0.7119 0.019709 0.702005
vn 0.43864 -0.059812 0.89667
vn 0.292015 -0.037488 0.955679
vn -0.007273 -0.058927 0.998236
vn -0.161466 -0.066205 0.984655
vn -0.44766 -0.060567 0.89215
vn -0.69476 0.014677 0.719092
vn -0.69476 0.014678 0.719092
vn -0.891811 0.052083 0.4494
vn -0.952095 0.079427 0.295307
vn -0.962377 0.271286 0.015306
vn -0.926375 0.267096 0.265496
vn -0.925565 0.272806 -0.262499
vn -0.808979 0.25752 -0.528428
vn -0.607205 0.232293 -0.75983
vn -0.325521 0.208617 -0.922234
vn 0.006917 0.198774 -0.980021
vn 0.338488 0.208336 -0.917617
vn 0.617784 0.23177 -0.751416
vn 0.816223 0.256827 -0.517513
vn 0.92915 0.272035 -0.250355
vn 0.962317 0.270517 0.027706
vn 0.919304 0.250522 0.303509
vn 0.807566 0.217543 0.54819
vn 0.741043 -0.055168 0.669188
vn 0.287621 0.033587 0.957155
vn 0.473711 0.03803 0.879859
vn 0.480897 -0.018168 0.876589
vn 0.151263 0.045731 0.987435
vn -0.018168 0.045411 0.998803
vn -0.042905 0.091244 0.994904
vn -0.15182 0.049479 0.987169
vn -0.105613 0.111604 0.988125
vn -0.47326 0.065002 0.878521
vn -0.693684 0.104652 0.712637
vn -0.832587 0.319044 0.45278
vn 0.716183 0.108056 0.689496
vn 0.452376 -0.022701 0.891538
vn -0.482661 0.058933 0.873822
vn -0.666616 0.068419 0.742255
vn -0.666614 0.071009 0.742013
vn -0.665609 0.123268 0.73605
vn -0.89746 0.12488 0.42305
vn -0.797924 0.291889 0.527368
vn -0.725548 0.3299 0.603943
vn -0.787449 0.327092 0.522432
vn -0.688499 0.013756 0.725106
vn -0.688296 0.01912 0.725177
vn -0.689423 -0.044753 0.722975
vn -0.687444 0.037631 0.725262
vn -0.415742 -0.25335 0.873483
vn -0.608092 -0.209867 0.765624
vn 0.018985 -0.257055 0.96621
vn 0.459261 -0.191816 0.867344
vn 0.552793 -0.167331 0.816346
vn 0.737205 -0.000404 0.675669
vn 0.719138 0.040203 0.693704
vn 0.775865 0.191553 0.601116
vn 0.825449 0.202065 0.52707
vn -0.214229 0.930737 0.296367
vn -0.338777 0.906928 0.250423
vn -0.450495 0.878183 0.160778
vn -0.502769 0.863652 0.036447
vn -0.47276 0.876633 -0.089515
vn -0.372356 0.909167 -0.186456
vn -0.241541 0.940387 -0.239439
vn -0.114606 0.958804 -0.259924
vn 0.002624 0.964464 -0.264203
vn 0.119762 0.958597 -0.258357
vn 0.246321 0.939967 -0.236196
vn 0.376249 0.908559 -0.18154
vn 0.475171 0.875932 -0.0834
vn 0.503433 0.862971 0.042847
vn 0.449519 0.87762 0.16648
vn 0.33664 0.906534 0.254694
vn 0.211517 0.930499 0.299052
vn 0.099267 0.943714 0.315516
vn -0.001483 0.947775 0.318936
vn -0.102187 0.943825 0.314249
vn -0.702645 -0.151038 0.695325
vn -0.666605 0.062895 0.742753
vn -0.799134 -0.035297 0.600116
vn 0.850459 -0.525662 -0.019974
vn 0.461504 -0.886352 -0.037334
vn -0.25295 -0.966466 -0.044265
vn -0.933388 -0.358174 -0.022306
vn -0.685967 -0.726692 -0.036983
vn 0.996919 -0.078412 0.002014
vn 0.964015 -0.265746 -0.007369
vn -0.940538 -0.338967 -0.022128
vn 0.821016 0.569902 0.033833
vn 0.631642 0.774086 0.042659
vn 0.248305 0.967397 0.049877
vn -0.058324 0.997063 0.049633
vn -0.477467 0.87768 0.041264
vn -0.693962 0.719289 0.032252
vn -0.908513 0.417563 0.015674
vn 0.973028 0.23002 0.01753
vn -0.93548 0.353169 0.012211
vn -0.989477 0.144683 0.001258
vn -0.991319 -0.130875 -0.012603
vn -0.629383 -0.602273 0.491064
vn -0.420281 -0.681271 0.599361
vn -0.841702 -0.444276 0.306848
vn -0.992347 -0.123383 -0.004907
vn -0.85796 0.363423 -0.363082
vn -0.528536 0.65946 -0.534567
vn -0.283235 0.762734 -0.581391
vn -0.122477 0.796113 -0.592624
vn 6.9e-05 0.805579 -0.592488
vn 0.122813 0.801551 -0.585178
vn 0.282587 0.774325 -0.566185
vn 0.521335 0.683313 -0.511168
vn 0.843267 0.417693 -0.338281
vn 0.998118 -0.058918 0.01701
vn 0.850956 -0.406199 0.332981
vn 0.631222 -0.580786 0.51405
vn 0.416631 -0.669808 0.614635
vn 0.207317 -0.713628 0.669145
vn -0.003303 -0.7284 0.685145
vn -0.213287 -0.718617 0.661889
vt 0.761037 0.313197
vt 0.772444 0.31329
vt 0.767686 0.35
vt 0.783345 0.316811
vt 0.792687 0.323463
vt 0.799561 0.332632
vt 0.8033 0.343445
vt 0.803543 0.354867
vt 0.800269 0.365795
vt 0.7938 0.375176
vt 0.784773 0.382107
vt 0.774073 0.385926
vt 0.762749 0.386282
vt 0.75191 0.383163
vt 0.742621 0.37691
vt 0.735792 0.368178
vt 0.732095 0.357883
vt 0.731898 0.347116
vt 0.73595 0.333781
vt 0.741568 0.323567
vt 0.750224 0.316478
vt 0.601024 0.61295
vt 0.57918 0.58808
vt 0.617227 0.560102
vt 0.638372 0.584223
vt 0.62861 0.637195
vt 0.664237 0.606389
vt 0.663036 0.661608
vt 0.694996 0.62761
vt 0.704041 0.685462
vt 0.730473 0.647958
vt 0.75004 0.706837
vt 0.769955 0.665924
vt 0.797677 0.725193
vt 0.811366 0.680479
vt 0.843664 0.739535
vt 0.852006 0.69126
vt 0.885375 0.750914
vt 0.890236 0.69935
vt 0.922378 0.759853
vt 0.926108 0.704664
vt 0.956529 0.766627
vt 0.960834 0.705974
vt 0.517495 0.209414
vt 0.521174 0.174795
vt 0.580342 0.188725
vt 0.571292 0.222272
vt 0.515037 0.247397
vt 0.565711 0.258088
vt 0.513512 0.290594
vt 0.562073 0.296993
vt 0.513545 0.338742
vt 0.560326 0.339007
vt 0.516881 0.389639
vt 0.56189 0.38283
vt 0.523542 0.439879
vt 0.567225 0.425813
vt 0.534048 0.486117
vt 0.576008 0.465738
vt 0.547063 0.52625
vt 0.587074 0.501431
vt 0.561965 0.55981
vt 0.600514 0.532725
vt 0.624689 0.514926
vt 0.641781 0.542035
vt 0.66256 0.566437
vt 0.686986 0.58841
vt 0.714873 0.608459
vt 0.746078 0.626776
vt 0.780369 0.642356
vt 0.816566 0.65422
vt 0.85292 0.662323
vt 0.888578 0.667417
vt 0.923524 0.669248
vt 0.957984 0.666552
vt 0.617144 0.203168
vt 0.60436 0.235271
vt 0.595714 0.269136
vt 0.589958 0.304698
vt 0.586953 0.341879
vt 0.58751 0.379942
vt 0.592117 0.417208
vt 0.600189 0.452447
vt 0.610993 0.485076
vt 0.645937 0.499161
vt 0.663592 0.525976
vt 0.683925 0.550832
vt 0.706772 0.57308
vt 0.731822 0.59253
vt 0.758991 0.609198
vt 0.788381 0.62265
vt 0.819565 0.632203
vt 0.851763 0.637954
vt 0.884856 0.640135
vt 0.918684 0.638345
vt 0.952456 0.632165
vt 0.648381 0.218688
vt 0.632477 0.249098
vt 0.62066 0.280729
vt 0.61296 0.313209
vt 0.284266 0.627121
vt 0.32568 0.685018
vt 0.277777 0.685018
vt 0.205192 0.601475
vt 0.205192 0.685018
vt 0.124677 0.614263
vt 0.132607 0.685018
vt 0.067126 0.685018
vt 0.090012 0.642933
vt 0.614493 0.438742
vt 0.631477 0.470778
vt 0.72373 0.481648
vt 0.703907 0.455986
vt 0.724486 0.449441
vt 0.739148 0.470283
vt 0.742267 0.508252
vt 0.754635 0.490507
vt 0.759094 0.5323
vt 0.769573 0.508663
vt 0.774847 0.551244
vt 0.784266 0.523392
vt 0.790277 0.564092
vt 0.799232 0.534287
vt 0.805928 0.572032
vt 0.814848 0.541621
vt 0.822946 0.57605
vt 0.831206 0.546197
vt 0.842619 0.576006
vt 0.848826 0.547385
vt 0.865992 0.570963
vt 0.867889 0.544834
vt 0.892799 0.560804
vt 0.887977 0.538149
vt 0.921763 0.544652
vt 0.907345 0.526262
vt 0.699182 0.297047
vt 0.723385 0.274334
vt 0.737116 0.293933
vt 0.719752 0.308571
vt 0.681206 0.319434
vt 0.70675 0.3253
vt 0.669296 0.340098
vt 0.698371 0.342595
vt 0.672614 0.359155
vt 0.694184 0.359732
vt 0.67663 0.376085
vt 0.693662 0.376702
vt 0.67693 0.392107
vt 0.696001 0.393796
vt 0.672627 0.412136
vt 0.701946 0.411327
vt 0.685997 0.432736
vt 0.711615 0.429745
vt 0.685893 0.509545
vt 0.705104 0.533202
vt 0.725826 0.554441
vt 0.747853 0.572852
vt 0.771295 0.588359
vt 0.796637 0.60025
vt 0.823773 0.60783
vt 0.852151 0.611326
vt 0.881895 0.611193
vt 0.913085 0.606807
vt 0.945228 0.597473
vt 0.679465 0.235965
vt 0.661028 0.263903
vt 0.647566 0.292426
vt 0.338966 0.722296
vt 0.352481 0.789239
vt 0.33126 0.789239
vt 0.27147 0.789239
vt 0.205192 0.789239
vt 0.138914 0.789239
vt 0.079123 0.789239
vt 0.042691 0.789239
vt 0.050733 0.724254
vt 0.647016 0.456221
vt 0.669076 0.484149
vt 0.70537 0.495185
vt 0.687899 0.470148
vt 0.724016 0.519337
vt 0.742896 0.541118
vt 0.762 0.559316
vt 0.781539 0.573567
vt 0.802243 0.583645
vt 0.824583 0.589363
vt 0.848737 0.590997
vt 0.875322 0.588704
vt 0.904346 0.581695
vt 0.934915 0.568967
vt 0.682531 0.279767
vt 0.703794 0.254376
vt 0.667086 0.305356
vt 0.315357 0.867295
vt 0.327414 0.867295
vt 0.310931 0.879391
vt 0.263109 0.867295
vt 0.25253 0.922282
vt 0.205192 0.867295
vt 0.205192 0.922282
vt 0.147275 0.867295
vt 0.157854 0.922282
vt 0.095027 0.867295
vt 0.107386 0.901067
vt 0.075541 0.877331
vt 0.06957 0.867295
vt 0.672784 0.445634
vt 0.039315 0.816489
vt 0.65446 0.452774
vt 0.671691 0.413991
vt 0.665365 0.435993
vt 0.66711 0.432902
vt 0.031673 0.789239
vt 0.595244 0.414954
vt 0.604801 0.430025
vt 0.589008 0.37856
vt 0.595494 0.343024
vt 0.61531 0.320843
vt 0.62428 0.315267
vt 0.642734 0.308045
vt 0.658409 0.323424
vt 0.661937 0.333763
vt 0.736199 0.411326
vt 0.741228 0.427528
vt 0.748037 0.443213
vt 0.756374 0.4576
vt 0.767596 0.469846
vt 0.780498 0.480989
vt 0.794417 0.490551
vt 0.809021 0.498436
vt 0.824009 0.504651
vt 0.838882 0.510452
vt 0.853729 0.51437
vt 0.867983 0.515858
vt 0.880745 0.514169
vt 0.890708 0.508565
vt 0.735704 0.333846
vt 0.730114 0.346858
vt 0.72996 0.362556
vt 0.731323 0.378667
vt 0.732934 0.394947
vt 0.626065 0.447771
vt 0.52077 0.540231
vt 0.50615 0.497827
vt 0.537231 0.575571
vt 0.555811 0.605244
vt 0.578585 0.631837
vt 0.607404 0.658104
vt 0.64352 0.684731
vt 0.686595 0.710731
vt 0.734756 0.734092
vt 0.784523 0.753567
vt 0.832156 0.768916
vt 0.874988 0.781083
vt 0.912542 0.790655
vt 0.946705 0.798083
vt 0.485174 0.209624
vt 0.488202 0.174829
vt 0.483152 0.248319
vt 0.482041 0.292818
vt 0.482538 0.342832
vt 0.486305 0.39609
vt 0.494215 0.44898
usemtl material_2
f 41/43/41 42/44/42 43/45/43 
f 42/44/42 44/46/44 43/45/43 
f 44/46/44 45/47/45 43/45/43 
f 45/47/45 46/48/46 43/45/43 
f 46/48/46 47/49/47 43/45/43 
f 47/49/47 48/50/48 43/45/43 
f 48/50/48 49/51/49 43/45/43 
f 49/51/49 50/52/50 43/45/43 
f 50/52/50 51/53/51 43/45/43 
f 51/53/51 52/54/52 43/45/43 
f 52/54/52 53/55/53 43/45/43 
f 53/55/53 54/56/54 43/45/43 
f 54/56/54 55/57/55 43/45/43 
f 55/57/55 56/58/56 43/45/43 
f 56/58/56 57/59/57 43/45/43 
f 57/59/57 58/60/58 43/45/43 
f 58/60/58 59/61/59 43/45/43 
f 59/61/59 60/62/60 43/45/43 
f 60/62/60 61/63/61 43/45/43 
f 61/63/61 41/43/41 43/45/43 
f 62/64/62 63/65/63 64/66/64 65/67/65 
f 66/68/66 62/64/62 65/67/65 67/69/67 
f 68/70/68 66/68/66 67/69/67 69/71/69 
f 70/72/70 68/70/68 69/71/69 71/73/71 
f 72/74/72 70/72/70 71/73/71 73/75/73 
f 74/76/74 72/74/72 73/75/73 75/77/75 
f 76/78/76 74/76/74 75/77/75 77/79/77 
f 78/80/78 76/78/76 77/79/77 79/81/79 
f 80/82/80 78/80/78 79/81/79 81/83/81 
f 82/84/82 80/82/80 81/83/81 83/85/83 
f 84/86/84 82/87/82 83/88/83 85/89/85 
f 86/90/86 84/86/84 85/89/85 87/91/87 
f 88/92/88 86/90/86 87/91/87 89/93/89 
f 90/94/90 88/92/88 89/93/89 91/95/91 
f 92/96/92 90/94/90 91/95/91 93/97/93 
f 94/98/94 92/96/92 93/97/93 95/99/95 
f 96/100/96 94/98/94 95/99/95 97/101/97 
f 98/102/98 96/100/96 97/101/97 99/103/99 
f 100/104/100 98/102/98 99/103/99 101/105/101 
f 63/65/63 100/104/100 101/105/101 64/66/64 
f 64/66/64 101/105/101 102/106/102 103/107/103 
f 65/67/65 64/66/64 103/107/103 104/108/104 
f 67/69/67 65/67/65 104/108/104 105/109/105 
f 69/71/69 67/69/67 105/109/105 106/110/106 
f 71/73/71 69/71/69 106/110/106 107/111/107 
f 73/75/73 71/73/71 107/111/107 108/112/108 
f 75/77/75 73/75/73 108/112/108 109/113/109 
f 77/79/77 75/77/75 109/113/109 110/114/110 
f 79/81/79 77/79/77 110/114/110 111/115/111 
f 81/83/81 79/81/79 111/115/111 112/116/112 
f 83/85/83 81/83/81 112/116/112 113/117/113 
f 85/89/85 83/88/83 113/118/113 114/119/114 
f 87/91/87 85/89/85 114/119/114 115/120/115 
f 89/93/89 87/91/87 115/120/115 116/121/116 
f 91/95/91 89/93/89 116/121/116 117/122/117 
f 93/97/93 91/95/91 117/122/117 118/123/118 
f 95/99/95 93/97/93 118/123/118 119/124/119 
f 97/101/97 95/99/95 119/124/119 120/125/120 
f 99/103/99 97/101/97 120/125/120 121/126/121 
f 101/105/101 99/103/99 121/126/121 102/106/102 
f 103/107/103 102/106/102 122/127/122 123/128/123 
f 104/108/104 103/107/103 123/128/123 124/129/124 
f 105/109/105 104/108/104 124/129/124 125/130/125 
f 106/110/106 105/109/105 125/130/125 126/131/126 
f 107/111/107 106/110/106 126/131/126 127/132/127 
f 108/112/108 107/111/107 127/132/127 128/133/128 
f 109/113/109 108/112/108 128/133/128 129/134/129 
f 110/114/110 109/113/109 129/134/129 130/135/130 
f 111/115/111 110/114/110 130/135/130 131/136/131 
f 112/116/112 111/115/111 131/136/131 132/137/132 
f 113/117/113 112/116/112 132/137/132 133/138/133 
f 114/119/114 113/118/113 133/139/133 134/140/134 
f 115/120/115 114/119/114 134/140/134 135/141/135 
f 116/121/116 115/120/115 135/141/135 136/142/136 
f 137/143/137 138/144/138 139/145/139 
f 140/146/140 137/143/137 139/145/139 141/147/141 
f 142/148/142 140/146/140 141/147/141 143/149/143 
f 144/150/144 145/151/145 142/148/145 143/149/145 
f 121/126/121 120/125/120 146/152/146 147/153/147 
f 102/106/102 121/126/121 147/153/147 122/127/122 
f 148/154/148 149/155/149 150/156/150 151/157/151 
f 152/158/152 148/154/148 151/157/151 153/159/153 
f 154/160/154 152/158/152 153/159/153 155/161/155 
f 156/162/156 154/160/154 155/161/155 157/163/157 
f 158/164/158 156/162/156 157/163/157 159/165/159 
f 160/166/160 158/164/158 159/165/159 161/167/161 
f 162/168/162 160/166/160 161/167/161 163/169/163 
f 164/170/164 162/168/162 163/169/163 165/171/165 
f 166/172/166 164/170/164 165/171/165 167/173/167 
f 168/174/168 166/172/166 167/173/167 169/175/169 
f 170/176/170 168/174/168 169/175/169 171/177/171 
f 172/178/172 170/179/170 171/180/171 173/181/173 
f 174/182/174 172/178/172 173/181/173 175/183/175 
f 176/184/176 174/182/174 175/183/175 177/185/177 
f 178/186/178 176/184/176 177/185/177 179/187/179 
f 180/188/180 178/186/178 179/187/179 181/189/181 
f 182/190/182 180/188/180 181/189/181 183/191/183 
f 184/192/184 182/190/182 183/191/183 185/193/185 
f 186/194/186 184/192/184 185/193/185 187/195/187 
f 149/155/149 186/194/186 187/195/187 150/156/150 
f 124/129/124 123/128/123 188/196/188 189/197/189 
f 125/130/125 124/129/124 189/197/189 190/198/190 
f 126/131/126 125/130/125 190/198/190 191/199/191 
f 127/132/127 126/131/126 191/199/191 192/200/192 
f 128/133/128 127/132/127 192/200/192 193/201/193 
f 129/134/129 128/133/128 193/201/193 194/202/194 
f 130/135/130 129/134/129 194/202/194 195/203/195 
f 131/136/131 130/135/130 195/203/195 196/204/196 
f 132/137/132 131/136/131 196/204/196 197/205/197 
f 133/138/133 132/137/132 197/205/197 198/206/198 
f 134/140/134 133/139/133 198/207/198 199/208/199 
f 135/141/135 134/140/134 199/208/199 200/209/200 
f 201/210/201 202/211/201 203/212/201 
f 139/145/139 138/144/138 201/210/202 
f 141/147/141 139/145/139 204/213/203 205/214/204 
f 143/149/143 141/147/141 205/214/204 206/215/205 
f 144/150/206 143/149/206 206/215/206 207/216/206 
f 208/217/207 209/218/208 144/150/207 207/216/207 
f 122/127/122 147/153/147 210/219/209 211/220/210 
f 123/128/123 122/127/122 211/220/210 188/196/188 
f 212/221/211 213/222/212 149/155/149 148/154/148 
f 214/223/213 212/221/211 148/154/148 152/158/152 
f 215/224/214 214/223/213 152/158/152 154/160/154 
f 216/225/215 215/224/214 154/160/154 156/162/156 
f 217/226/216 216/225/215 156/162/156 158/164/158 
f 218/227/217 217/226/216 158/164/158 160/166/160 
f 219/228/218 218/227/217 160/166/160 162/168/162 
f 220/229/219 219/228/218 162/168/162 164/170/164 
f 221/230/220 220/229/219 164/170/164 166/172/166 
f 222/231/221 221/230/220 166/172/166 168/174/168 
f 223/232/222 222/231/221 168/174/168 170/176/170 
f 224/233/223 223/234/222 170/179/170 172/178/172 
f 225/235/224 224/233/223 172/178/172 174/182/174 
f 226/236/225 227/237/225 228/238/225 
f 229/239/226 226/236/227 228/238/228 230/240/229 
f 231/241/230 229/239/226 230/240/229 232/242/231 
f 233/243/232 231/241/230 232/242/231 234/244/233 
f 235/245/234 233/243/234 234/244/234 236/246/234 
f 236/246/235 237/247/235 238/248/235 235/245/235 
f 213/222/212 239/249/236 186/194/186 149/155/149 
f 188/196/188 211/220/210 213/222/212 212/221/211 
f 189/197/189 188/196/188 212/221/211 214/223/213 
f 190/198/190 189/197/189 214/223/213 215/224/214 
f 191/199/191 190/198/190 215/224/214 216/225/215 
f 192/200/192 191/199/191 216/225/215 217/226/216 
f 193/201/193 192/200/192 217/226/216 218/227/217 
f 194/202/194 193/201/193 218/227/217 219/228/218 
f 195/203/195 194/202/194 219/228/218 220/229/219 
f 196/204/196 195/203/195 220/229/219 221/230/220 
f 197/205/197 196/204/196 221/230/220 222/231/221 
f 198/206/198 197/205/197 222/231/221 223/232/222 
f 199/208/199 198/207/198 223/234/222 224/233/223 
f 200/209/200 199/208/199 224/233/223 225/235/224 
f 203/212/237 202/211/237 227/237/237 226/236/237 
f 204/213/203 203/212/238 226/236/227 229/239/226 
f 205/214/204 204/213/203 229/239/226 231/241/230 
f 206/215/205 205/214/204 231/241/230 233/243/232 
f 207/216/239 206/215/239 233/243/239 235/245/239 
f 240/250/240 235/245/241 238/248/242 
f 211/220/210 210/219/209 241/251/243 213/222/212 
f 242/252/244 182/190/182 184/192/184 
f 239/249/236 243/253/245 244/254/246 186/194/186 
f 241/251/243 243/253/245 239/249/236 
f 245/255/247 208/217/248 240/250/249 
f 245/255/247 209/218/250 208/217/248 
f 120/125/120 119/124/119 246/256/251 247/257/252 
f 119/124/119 118/123/118 248/258/253 246/256/251 
f 118/123/118 117/122/117 249/259/254 248/258/253 
f 250/260/255 116/121/116 136/142/136 
f 251/261/256 250/260/255 136/142/136 
f 251/261/256 135/141/135 200/209/200 252/262/257 
f 253/263/258 252/262/257 200/209/200 225/235/224 
f 254/264/259 253/263/258 174/182/174 176/184/176 
f 178/186/178 254/264/259 176/184/176 
f 187/195/187 185/193/185 54/265/260 53/266/261 
f 150/156/150 187/195/187 53/266/261 52/267/262 
f 151/157/151 150/156/150 52/267/262 51/268/263 
f 153/159/153 151/157/151 51/268/263 50/269/264 
f 155/161/155 153/159/153 50/269/264 49/270/265 
f 157/163/157 155/161/155 49/270/265 48/271/266 
f 159/165/159 157/163/157 48/271/266 47/272/267 
f 161/167/161 159/165/159 47/272/267 46/273/268 
f 163/169/163 161/167/161 46/273/268 45/274/269 
f 165/171/165 163/169/163 45/274/269 44/275/270 
f 167/173/167 165/171/165 44/275/270 42/276/271 
f 169/175/169 167/173/167 42/276/271 41/277/272 
f 171/177/171 169/175/169 41/277/272 61/278/273 
f 173/181/173 171/180/171 61/63/273 60/62/274 
f 175/183/175 173/181/173 60/62/274 59/279/275 
f 177/185/177 175/183/175 59/279/275 58/280/276 
f 179/187/179 177/185/177 58/280/276 57/281/277 
f 181/189/181 179/187/179 57/281/277 56/282/278 
f 183/191/183 181/189/181 56/282/278 55/283/279 
f 185/193/185 183/191/183 55/283/279 54/265/260 
f 120/125/120 247/257/252 146/152/280 
f 117/122/117 116/121/116 250/260/255 249/259/254 
f 139/145/139 201/210/202 203/212/238 204/213/203 
f 136/142/136 135/141/135 251/261/256 
f 174/182/174 253/263/258 225/235/224 
f 186/194/186 244/254/246 242/252/244 184/192/184 
f 213/222/212 241/251/243 239/249/236 
f 240/250/240 208/217/281 207/216/281 235/245/241 
f 147/153/147 146/152/282 255/284/282 210/219/209 
f 249/143/283 250/144/283 138/144/283 137/143/283 
f 248/146/284 249/143/284 137/143/284 140/146/284 
f 246/148/285 248/146/285 140/146/285 142/148/285 
f 146/150/286 247/151/286 145/151/286 144/150/286 
f 247/151/287 246/148/287 142/148/287 145/151/287 
f 251/210/288 252/211/288 202/211/288 201/210/288 
f 250/144/289 251/210/289 201/210/289 138/144/289 
f 255/218/290 146/150/290 144/150/290 209/218/290 
f 253/237/291 254/238/291 228/238/291 227/237/291 
f 254/238/292 178/240/292 230/240/292 228/238/292 
f 178/240/293 180/242/293 232/242/293 230/240/293 
f 180/242/294 182/244/294 234/244/294 232/242/294 
f 182/244/295 242/246/295 236/246/295 234/244/295 
f 242/246/296 244/247/296 237/247/296 236/246/296 
f 244/247/297 243/248/297 238/248/297 237/247/297 
f 252/211/298 253/237/298 227/237/298 202/211/298 
f 243/248/299 241/250/299 240/250/299 238/248/299 
f 241/250/300 210/255/300 245/255/300 240/250/300 
f 210/255/301 255/218/301 209/218/301 245/255/301 
f 256/285/302 257/286/303 96/100/96 98/102/98 
f 258/287/304 256/285/302 98/102/98 100/104/100 
f 259/288/305 258/287/304 100/104/100 63/65/63 
f 260/289/306 259/288/305 63/65/63 62/64/62 
f 261/290/307 260/289/306 62/64/62 66/68/66 
f 262/291/308 261/290/307 66/68/66 68/70/68 
f 263/292/309 262/291/308 68/70/68 70/72/70 
f 264/293/310 263/292/309 70/72/70 72/74/72 
f 265/294/311 264/293/310 72/74/72 74/76/74 
f 266/295/312 265/294/311 74/76/74 76/78/76 
f 267/296/313 266/295/312 76/78/76 78/80/78 
f 268/297/314 267/296/313 78/80/78 80/82/80 
f 269/298/315 268/297/314 80/82/80 82/84/82 
f 270/299/316 269/300/315 82/87/82 84/86/84 
f 271/301/317 270/299/316 84/86/84 86/90/86 
f 272/302/318 271/301/317 86/90/86 88/92/88 
f 273/303/319 272/302/318 88/92/88 90/94/90 
f 274/304/320 273/303/319 90/94/90 92/96/92 
f 275/305/321 274/304/320 92/96/92 94/98/94 
f 257/286/303 275/305/321 94/98/94 96/100/96 
s off
g _2
v -4.85159 1.89645 -0.376616
v -4.73262 1.8845 -0.274098
v -4.74445 2.06895 0.092217
v -4.86328 2.07875 -0.01311
v -4.92728 1.90982 -0.500894
v -4.93903 2.08941 -0.139126
v -4.95232 1.92296 -0.633494
v -4.9644 2.0991 -0.270593
v -4.92424 1.93461 -0.760716
v -4.93693 2.10656 -0.393381
v -4.84579 1.94381 -0.869832
v -4.85929 2.11126 -0.496129
v -4.7246 1.95004 -0.951199
v -4.73899 2.11347 -0.571617
v -4.57245 1.95344 -1.00017
v -4.58764 2.11413 -0.617028
v -4.40414 1.95456 -1.01634
v -4.41994 2.11424 -0.632267
v -4.23612 1.9536 -0.999569
v -4.25222 2.11425 -0.61739
v -4.0849 1.9501 -0.948433
v -4.10096 2.11378 -0.571619
v -3.96536 1.94358 -0.863688
v -3.98108 2.1118 -0.494933
v -3.88925 1.93421 -0.751441
v -3.90449 2.10736 -0.390647
v -3.86404 1.92268 -0.622533
v -3.87879 2.10021 -0.266618
v -3.89222 1.90997 -0.490201
v -3.90652 2.09083 -0.134581
v -3.97105 1.89714 -0.368015
v -3.98494 2.08038 -0.008724
v -4.09281 1.88554 -0.268644
v -4.10627 2.07049 0.095788
v -4.24552 1.87693 -0.203336
v -4.2585 2.0631 0.164813
v -4.41409 1.87338 -0.181028
v -4.42659 2.06002 0.188251
v -4.58192 1.87613 -0.205736
v -4.59402 2.06214 0.162734
v -4.83948 1.68879 -0.769538
v -4.71999 1.67811 -0.673673
v -4.91539 1.70228 -0.890664
v -4.94026 1.71746 -1.02614
v -4.91163 1.73301 -1.16298
v -4.8323 1.74741 -1.28734
v -4.71007 1.75905 -1.38606
v -4.55698 1.76644 -1.4484
v -4.38805 1.76854 -1.46739
v -4.21983 1.76504 -1.44083
v -4.06879 1.75643 -1.37159
v -3.94963 1.74388 -1.26729
v -3.87398 1.72899 -1.13927
v -3.84919 1.71339 -1.00104
v -3.8777 1.69856 -0.866614
v -3.95675 1.68576 -0.748951
v -4.07864 1.67598 -0.65866
v -4.23147 1.67 -0.603267
v -4.40032 1.66832 -0.587053
v -4.56866 1.67109 -0.611166
v -4.83956 1.4893 -0.81222
v -4.71995 1.47785 -0.712615
v -4.91551 1.50368 -0.937346
v -4.94032 1.51969 -1.07628
v -4.91156 1.53586 -1.21559
v -4.83205 1.55059 -1.34139
v -4.7096 1.56233 -1.44082
v -4.55621 1.56975 -1.50354
v -4.38692 1.57195 -1.52294
v -4.21833 1.56865 -1.49692
v -4.06692 1.56026 -1.42818
v -3.94749 1.54779 -1.3239
v -3.87169 1.53264 -1.19492
v -3.84692 1.5164 -1.05444
v -3.8756 1.50065 -0.91648
v -3.95496 1.4868 -0.794418
v -4.07724 1.47608 -0.699665
v -4.23049 1.46943 -0.640772
v -4.39973 1.46746 -0.622903
v -4.56838 1.47035 -0.64758
vn -0.521186 -0.76607 0.376166
vn -0.320834 -0.848322 0.421208
vn -0.420281 -0.681271 0.599361
vn -0.629383 -0.602273 0.491064
vn -0.785705 -0.559361 0.264166
vn -0.841702 -0.444276 0.306848
vn -0.999062 -0.043201 -0.002839
vn -0.992347 -0.123383 -0.004907
vn -0.783027 0.551466 -0.287671
vn -0.85796 0.363423 -0.363082
vn -0.453887 0.804084 -0.383973
vn -0.528536 0.65946 -0.534567
vn -0.237781 0.887016 -0.395806
vn -0.283235 0.762734 -0.581391
vn -0.100095 0.91564 -0.389338
vn -0.122477 0.796113 -0.592624
vn 0.003346 0.922858 -0.385126
vn 6.9e-05 0.805579 -0.592488
vn 0.108403 0.915659 -0.387062
vn 0.122813 0.801551 -0.585178
vn 0.248336 0.887494 -0.38818
vn 0.282587 0.774325 -0.566185
vn 0.459663 0.80937 -0.365554
vn 0.521335 0.683313 -0.511168
vn 0.76974 0.584148 -0.257432
vn 0.843267 0.417693 -0.338281
vn 0.998721 0.042469 0.027444
vn 0.998118 -0.058918 0.01701
vn 0.809526 -0.502529 0.303535
vn 0.850956 -0.406199 0.332981
vn 0.529849 -0.740895 0.412716
vn 0.631222 -0.580786 0.51405
vn 0.317909 -0.83637 0.446564
vn 0.416631 -0.669808 0.614635
vn 0.149024 -0.878209 0.454468
vn 0.207317 -0.713628 0.669145
vn -0.003822 -0.892043 0.451934
vn -0.003303 -0.7284 0.685145
vn -0.156043 -0.883368 0.44194
vn -0.213287 -0.718617 0.661889
vn -0.671414 -0.548605 0.498233
vn -0.424545 -0.677322 0.60083
vn -0.916951 -0.283616 0.280647
vn -0.991363 0.117833 -0.057582
vn -0.827088 0.438356 -0.351811
vn -0.587048 0.62173 -0.518485
vn -0.359357 0.719842 -0.593878
vn -0.163452 0.766221 -0.621441
vn 0.012648 0.77922 -0.626623
vn 0.189278 0.764498 -0.616212
vn 0.384843 0.717207 -0.580957
vn 0.607041 0.621197 -0.495596
vn 0.834796 0.447257 -0.321055
vn 0.988292 0.150257 -0.02649
vn 0.918204 -0.241483 0.313985
vn 0.666086 -0.520844 0.533901
vn 0.408013 -0.661379 0.629367
vn 0.186899 -0.726462 0.661303
vn -0.012179 -0.748255 0.663299
vn -0.209611 -0.734183 0.645785
vn -0.762919 -0.097913 0.639037
vn -0.525378 -0.118169 0.842623
vn -0.940822 -0.05356 0.334641
vn -0.999367 0.013092 -0.033072
vn -0.919056 0.084972 -0.384859
vn -0.736758 0.145257 -0.660369
vn -0.501091 0.187502 -0.844838
vn -0.243437 0.212069 -0.946449
vn 0.020584 0.220893 -0.975081
vn 0.282419 0.214723 -0.934951
vn 0.5336 0.192297 -0.823586
vn 0.759273 0.151083 -0.632991
vn 0.930148 0.089982 -0.35599
vn 0.999875 0.014765 -0.005713
vn 0.931029 -0.057047 0.360458
vn 0.741517 -0.105324 0.662615
vn 0.493131 -0.125848 0.860805
vn 0.233838 -0.12925 0.963646
vn -0.020863 -0.127186 0.991659
vn -0.27319 -0.124591 0.953858
vt 0.591309 0.580499
vt 0.630319 0.580499
vt 0.630319 0.770818
vt 0.591309 0.770818
vt 0.553579 0.580499
vt 0.553579 0.770818
vt 0.51667 0.580499
vt 0.51667 0.770818
vt 0.479766 0.580499
vt 0.479766 0.770818
vt 0.442056 0.580499
vt 0.442056 0.770818
vt 0.403104 0.580499
vt 0.403104 0.770818
vt 0.363004 0.580499
vt 0.363004 0.770818
vt 0.322318 0.580499
vt 0.322318 0.770818
vt 0.281852 0.580499
vt 0.281852 0.770818
vt 0.242372 0.580499
vt 0.242372 0.770818
vt 0.204338 0.580499
vt 0.204338 0.770818
vt 0.167714 0.580499
vt 0.167714 0.770818
vt 0.131961 0.580499
vt 0.131961 0.770818
vt 0.867401 0.580499
vt 0.903563 0.580499
vt 0.903563 0.770818
vt 0.867401 0.770818
vt 0.830377 0.580499
vt 0.830377 0.770818
vt 0.791963 0.580499
vt 0.791963 0.770818
vt 0.752149 0.580499
vt 0.752149 0.770818
vt 0.711414 0.580499
vt 0.711414 0.770818
vt 0.670536 0.580499
vt 0.670536 0.770818
vt 0.591309 0.363018
vt 0.630319 0.363018
vt 0.553579 0.363018
vt 0.51667 0.363018
vt 0.479766 0.363018
vt 0.442056 0.363018
vt 0.403104 0.363018
vt 0.363004 0.363018
vt 0.322318 0.363018
vt 0.281852 0.363018
vt 0.242372 0.363018
vt 0.204338 0.363018
vt 0.167714 0.363018
vt 0.131961 0.363018
vt 0.867401 0.363018
vt 0.903563 0.363018
vt 0.830377 0.363018
vt 0.791963 0.363018
vt 0.752149 0.363018
vt 0.711414 0.363018
vt 0.670536 0.363018
vt 0.591309 0.213297
vt 0.630319 0.213297
vt 0.553579 0.213297
vt 0.51667 0.213297
vt 0.479766 0.213297
vt 0.442056 0.213297
vt 0.403104 0.213297
vt 0.363004 0.213297
vt 0.322318 0.213297
vt 0.281852 0.213297
vt 0.242372 0.213297
vt 0.204338 0.213297
vt 0.167714 0.213297
vt 0.131961 0.213297
vt 0.867401 0.213297
vt 0.903563 0.213297
vt 0.830377 0.213297
vt 0.791963 0.213297
vt 0.752149 0.213297
vt 0.711414 0.213297
vt 0.670536 0.213297
usemtl material_3
f 276/306/322 277/307/323 278/308/324 279/309/325 
f 280/310/326 276/306/322 279/309/325 281/311/327 
f 282/312/328 280/310/326 281/311/327 283/313/329 
f 284/314/330 282/312/328 283/313/329 285/315/331 
f 286/316/332 284/314/330 285/315/331 287/317/333 
f 288/318/334 286/316/332 287/317/333 289/319/335 
f 290/320/336 288/318/334 289/319/335 291/321/337 
f 292/322/338 290/320/336 291/321/337 293/323/339 
f 294/324/340 292/322/338 293/323/339 295/325/341 
f 296/326/342 294/324/340 295/325/341 297/327/343 
f 298/328/344 296/326/342 297/327/343 299/329/345 
f 300/330/346 298/328/344 299/329/345 301/331/347 
f 302/332/348 300/330/346 301/331/347 303/333/349 
f 304/334/350 302/335/348 303/336/349 305/337/351 
f 306/338/352 304/334/350 305/337/351 307/339/353 
f 308/340/354 306/338/352 307/339/353 309/341/355 
f 310/342/356 308/340/354 309/341/355 311/343/357 
f 312/344/358 310/342/356 311/343/357 313/345/359 
f 314/346/360 312/344/358 313/345/359 315/347/361 
f 277/307/323 314/346/360 315/347/361 278/308/324 
f 316/348/362 317/349/363 277/307/323 276/306/322 
f 318/350/364 316/348/362 276/306/322 280/310/326 
f 319/351/365 318/350/364 280/310/326 282/312/328 
f 320/352/366 319/351/365 282/312/328 284/314/330 
f 321/353/367 320/352/366 284/314/330 286/316/332 
f 322/354/368 321/353/367 286/316/332 288/318/334 
f 323/355/369 322/354/368 288/318/334 290/320/336 
f 324/356/370 323/355/369 290/320/336 292/322/338 
f 325/357/371 324/356/370 292/322/338 294/324/340 
f 326/358/372 325/357/371 294/324/340 296/326/342 
f 327/359/373 326/358/372 296/326/342 298/328/344 
f 328/360/374 327/359/373 298/328/344 300/330/346 
f 329/361/375 328/360/374 300/330/346 302/332/348 
f 330/362/376 329/363/375 302/335/348 304/334/350 
f 331/364/377 330/362/376 304/334/350 306/338/352 
f 332/365/378 331/364/377 306/338/352 308/340/354 
f 333/366/379 332/365/378 308/340/354 310/342/356 
f 334/367/380 333/366/379 310/342/356 312/344/358 
f 335/368/381 334/367/380 312/344/358 314/346/360 
f 317/349/363 335/368/381 314/346/360 277/307/323 
f 336/369/382 337/370/383 317/349/363 316/348/362 
f 338/371/384 336/369/382 316/348/362 318/350/364 
f 339/372/385 338/371/384 318/350/364 319/351/365 
f 340/373/386 339/372/385 319/351/365 320/352/366 
f 341/374/387 340/373/386 320/352/366 321/353/367 
f 342/375/388 341/374/387 321/353/367 322/354/368 
f 343/376/389 342/375/388 322/354/368 323/355/369 
f 344/377/390 343/376/389 323/355/369 324/356/370 
f 345/378/391 344/377/390 324/356/370 325/357/371 
f 346/379/392 345/378/391 325/357/371 326/358/372 
f 347/380/393 346/379/392 326/358/372 327/359/373 
f 348/381/394 347/380/393 327/359/373 328/360/374 
f 349/382/395 348/381/394 328/360/374 329/361/375 
f 350/383/396 349/384/395 329/363/375 330/362/376 
f 351/385/397 350/383/396 330/362/376 331/364/377 
f 352/386/398 351/385/397 331/364/377 332/365/378 
f 353/387/399 352/386/398 332/365/378 333/366/379 
f 354/388/400 353/387/399 333/366/379 334/367/380 
f 355/389/401 354/388/400 334/367/380 335/368/381 
f 337/370/383 355/389/401 335/368/381 317/349/363 
s off
